{
  "urn" : "local:angel.gimenez:observ.sandbox:features",
  "version" : "0.0.1",
  "adapterType" : "vector",
  "localPath" : "observ.sandbox/resources/features.v0.0.1",
  "geometry" : "s1(1072){bbox=[-122.97 152.39 -39.00361 59.724583874],proj=EPSG:4326}",
  "projectName" : "observ.sandbox",
  "localName" : "features.shp",
  "type" : "OBJECT",
  "resourceTimestamp" : 1639154336767,
  "metadata" : {
    "im:keywords" : "features",
    "dc:comment" : "Features used as input dataset for the ML models, associated with the coordinates of the sites in the CropPol database.",
    "im:notes" : "",
    "dc:title" : "features",
    "dc:url" : "",
    "dc:creator" : "",
    "im:thematic-area" : "",
    "dc:originator" : "",
    "im:geographic-area" : "",
    "dc:source" : ""
  },
  "parameters" : { },
  "localPaths" : [ "observ.sandbox/resources/features.v0.0.1/features.shx", "observ.sandbox/resources/features.v0.0.1/features.shp", "observ.sandbox/resources/features.v0.0.1/features.prj", "observ.sandbox/resources/features.v0.0.1/features.dbf" ],
  "history" : [ ],
  "notifications" : [ ],
  "attributes" : [ {
    "name" : "latitude",
    "type" : "NUMBER",
    "key" : false,
    "optional" : true,
    "exampleValue" : null,
    "index" : 0
  }, {
    "name" : "longitude",
    "type" : "NUMBER",
    "key" : false,
    "optional" : true,
    "exampleValue" : null,
    "index" : 0
  }, {
    "name" : "log_visit_",
    "type" : "NUMBER",
    "key" : false,
    "optional" : true,
    "exampleValue" : null,
    "index" : 0
  }, {
    "name" : "elev",
    "type" : "NUMBER",
    "key" : false,
    "optional" : true,
    "exampleValue" : null,
    "index" : 0
  }, {
    "name" : "annmeant",
    "type" : "NUMBER",
    "key" : false,
    "optional" : true,
    "exampleValue" : null,
    "index" : 0
  }, {
    "name" : "diurange",
    "type" : "NUMBER",
    "key" : false,
    "optional" : true,
    "exampleValue" : null,
    "index" : 0
  }, {
    "name" : "maxtwarm",
    "type" : "NUMBER",
    "key" : false,
    "optional" : true,
    "exampleValue" : null,
    "index" : 0
  }, {
    "name" : "twetquart",
    "type" : "NUMBER",
    "key" : false,
    "optional" : true,
    "exampleValue" : null,
    "index" : 0
  }, {
    "name" : "precdrmo",
    "type" : "NUMBER",
    "key" : false,
    "optional" : true,
    "exampleValue" : null,
    "index" : 0
  }, {
    "name" : "soilc",
    "type" : "NUMBER",
    "key" : false,
    "optional" : true,
    "exampleValue" : null,
    "index" : 0
  }, {
    "name" : "soilden",
    "type" : "NUMBER",
    "key" : false,
    "optional" : true,
    "exampleValue" : null,
    "index" : 0
  }, {
    "name" : "urban",
    "type" : "NUMBER",
    "key" : false,
    "optional" : true,
    "exampleValue" : null,
    "index" : 0
  }, {
    "name" : "bare",
    "type" : "NUMBER",
    "key" : false,
    "optional" : true,
    "exampleValue" : null,
    "index" : 0
  }, {
    "name" : "shrub",
    "type" : "NUMBER",
    "key" : false,
    "optional" : true,
    "exampleValue" : null,
    "index" : 0
  }, {
    "name" : "pdsi",
    "type" : "NUMBER",
    "key" : false,
    "optional" : true,
    "exampleValue" : null,
    "index" : 0
  }, {
    "name" : "biome1",
    "type" : "NUMBER",
    "key" : false,
    "optional" : true,
    "exampleValue" : null,
    "index" : 0
  }, {
    "name" : "biome2",
    "type" : "NUMBER",
    "key" : false,
    "optional" : true,
    "exampleValue" : null,
    "index" : 0
  }, {
    "name" : "biome4",
    "type" : "NUMBER",
    "key" : false,
    "optional" : true,
    "exampleValue" : null,
    "index" : 0
  }, {
    "name" : "biome5",
    "type" : "NUMBER",
    "key" : false,
    "optional" : true,
    "exampleValue" : null,
    "index" : 0
  }, {
    "name" : "biome6",
    "type" : "NUMBER",
    "key" : false,
    "optional" : true,
    "exampleValue" : null,
    "index" : 0
  }, {
    "name" : "biome7",
    "type" : "NUMBER",
    "key" : false,
    "optional" : true,
    "exampleValue" : null,
    "index" : 0
  }, {
    "name" : "biome8",
    "type" : "NUMBER",
    "key" : false,
    "optional" : true,
    "exampleValue" : null,
    "index" : 0
  }, {
    "name" : "biome10",
    "type" : "NUMBER",
    "key" : false,
    "optional" : true,
    "exampleValue" : null,
    "index" : 0
  }, {
    "name" : "biome12",
    "type" : "NUMBER",
    "key" : false,
    "optional" : true,
    "exampleValue" : null,
    "index" : 0
  } ],
  "spatialExtent" : {
    "east" : 152.39,
    "west" : -122.97,
    "north" : 59.724583874,
    "south" : -39.00361,
    "gridResolution" : null,
    "gridUnit" : null
  },
  "dependencies" : null,
  "outputs" : null,
  "categorizables" : [ ],
  "codelists" : [ ],
  "availability" : null,
  "exportFormats" : {
    "shp" : "ESRI shapefile"
  }
}