{
  "urn" : "local:angel.gimenez:observ.sandbox:observ_ml.probav_lc100_global_v3_0_1_2017_conso_bare_coverfraction_layer_epsg_4326",
  "version" : "0.0.1",
  "adapterType" : "wcs",
  "localPath" : "observ.sandbox/resources/observ_ml.probav_lc100_global_v3_0_1_2017_conso_bare_coverfraction_layer_epsg_4326",
  "geometry" : "τ1{tend=1514764800000,tstart=1483228800000,ttype=logical}S2(362879,141119){bbox=[-180.0 179.9999999999988 -59.999999999999545 80.0],proj=EPSG:4326}",
  "projectName" : "observ.sandbox",
  "localName" : "observ_ml.probav_lc100_global_v3_0_1_2017_conso_bare_coverfraction_layer_epsg_4326",
  "type" : "NUMBER",
  "resourceTimestamp" : 1639390498535,
  "metadata" : {
    "im:keywords" : "",
    "dc:comment" : "Percentage of bareland from the Copernicus Global Land Service Land Cover 100m collection 3 epoch 2017\r\n\r\nProduced by the global component of the Copernicus Land Service, derived from PROBA-V satellite observations and ancillary datasets.",
    "im:notes" : "",
    "dc:title" : "Bareland Cover Percentage 2017",
    "dc:url" : "https://zenodo.org/record/3518036#.YbN1u1mCE6Q",
    "dc:creator" : "",
    "im:thematic-area" : "",
    "dc:originator" : "",
    "im:geographic-area" : "",
    "dc:source" : ""
  },
  "parameters" : {
    "wcsIdentifier" : "observ_ml__probav_lc100_global_v3_0_1_2017_conso_bare_coverfraction_layer_epsg_4326",
    "transform" : "",
    "serviceUrl" : "http://192.168.250.122:8600/geoserver/ows",
    "nodata" : "255.0",
    "wcsVersion" : "2.0.1"
  },
  "localPaths" : [ ],
  "history" : [ ],
  "notifications" : [ ],
  "attributes" : [ ],
  "spatialExtent" : {
    "east" : 179.9999999999988,
    "west" : -180.0,
    "north" : 80.0,
    "south" : -59.999999999999545,
    "gridResolution" : null,
    "gridUnit" : null
  },
  "dependencies" : null,
  "outputs" : null,
  "categorizables" : [ ],
  "codelists" : [ ],
  "availability" : null,
  "exportFormats" : { }
}