@relation pollinator_visit_occurrence_of_site_instances-weka.filters.unsupervised.attribute.Discretize-Y-F-B3-M-1.0-R1-precision6-weka.filters.unsupervised.attribute.Discretize-Y-B10-M-1.0-R2-precision6-weka.filters.unsupervised.attribute.Discretize-Y-B10-M-1.0-R3-precision6-weka.filters.unsupervised.attribute.Discretize-Y-B10-M-1.0-R4-precision6-weka.filters.unsupervised.attribute.Discretize-Y-B10-M-1.0-R5-precision6-weka.filters.unsupervised.attribute.Discretize-Y-B10-M-1.0-R6-precision6-weka.filters.unsupervised.attribute.Discretize-Y-F-B4-M-1.0-R7-precision6-weka.filters.unsupervised.attribute.Discretize-Y-B10-M-1.0-R8-precision6-weka.filters.unsupervised.attribute.Discretize-Y-F-B4-M-1.0-R9-precision6-weka.filters.unsupervised.attribute.Discretize-Y-F-B4-M-1.0-R10-precision6-weka.filters.unsupervised.attribute.Discretize-Y-F-B4-M-1.0-R11-precision6-weka.filters.unsupervised.attribute.Discretize-Y-B10-M-1.0-R12-precision6-weka.filters.unsupervised.attribute.Discretize-Y-F-B4-M-1.0-R13-precision6-weka.filters.unsupervised.attribute.Discretize-Y-B2-M-1.0-R14-precision6-weka.filters.unsupervised.attribute.Discretize-Y-B2-M-1.0-R15-precision6-weka.filters.unsupervised.attribute.Discretize-Y-B2-M-1.0-R16-precision6-weka.filters.unsupervised.attribute.Discretize-Y-B2-M-1.0-R17-precision6-weka.filters.unsupervised.attribute.Discretize-Y-B2-M-1.0-R18-precision6-weka.filters.unsupervised.attribute.Discretize-Y-B2-M-1.0-R19-precision6-weka.filters.unsupervised.attribute.Discretize-Y-B2-M-1.0-R20-precision6-weka.filters.unsupervised.attribute.Discretize-Y-B2-M-1.0-R21-precision6-weka.filters.unsupervised.attribute.Discretize-Y-B2-M-1.0-R22-precision6

@attribute pollinator_visit_occurrence_of_site {'\'B1of3\'','\'B2of3\'','\'B3of3\''}
@attribute mean_atmospheric_temperature {'\'B1of10\'','\'B2of10\'','\'B3of10\'','\'B4of10\'','\'B5of10\'','\'B6of10\'','\'B7of10\'','\'B8of10\'','\'B9of10\'','\'B10of10\''}
@attribute mean_temperature_diurnal_range {'\'B1of10\'','\'B2of10\'','\'B3of10\'','\'B4of10\'','\'B5of10\'','\'B6of10\'','\'B7of10\'','\'B8of10\'','\'B9of10\'','\'B10of10\''}
@attribute maximum_temperature_warmest_month {'\'B1of10\'','\'B2of10\'','\'B3of10\'','\'B4of10\'','\'B5of10\'','\'B6of10\'','\'B7of10\'','\'B8of10\'','\'B9of10\'','\'B10of10\''}
@attribute mean_temperature_wettest_quarter {'\'B1of10\'','\'B2of10\'','\'B3of10\'','\'B4of10\'','\'B5of10\'','\'B6of10\'','\'B7of10\'','\'B8of10\'','\'B9of10\'','\'B10of10\''}
@attribute precipitation_volume_driest_month {'\'All\''}
@attribute elevation {'\'B1of4\'','\'B2of4\'','\'B3of4\'','\'B4of4\''}
@attribute drought_severity_index {'\'B1of10\'','\'B2of10\'','\'B3of10\'','\'B4of10\'','\'B5of10\'','\'B6of10\'','\'B7of10\'','\'B8of10\'','\'B9of10\'','\'B10of10\''}
@attribute bare_area_percentage {'\'B1of4\'','\'B2of4\'','\'B3of4\'','\'B4of4\''}
@attribute artificial_surface_percentage {'\'B1of4\'','\'B2of4\'','\'B3of4\'','\'B4of4\''}
@attribute shrubland_percentage {'\'B1of4\'','\'B2of4\'','\'B3of4\'','\'B4of4\''}
@attribute soil_density {'\'B1of10\'','\'B2of10\'','\'B3of10\'','\'B4of10\'','\'B5of10\'','\'B6of10\'','\'B7of10\'','\'B8of10\'','\'B9of10\'','\'B10of10\''}
@attribute soil_organic_carbon_content {'\'B1of2\'','\'B2of2\''}
@attribute value_of_tropical_and_subtropical_moist_broadleaf_forest {'\'All\''}
@attribute value_of_tropical_and_subtropical_dry_broadleaf_forest {'\'All\''}
@attribute value_of_temperate_broadleaf_and_mixed_forest {'\'All\''}
@attribute value_of_temperate_conifer_forest {'\'All\''}
@attribute value_of_boreal_forest {'\'All\''}
@attribute value_of_tropical_and_subtropical_grassland_savanna_and_shrubland {'\'All\''}
@attribute value_of_temperate_grassland_savanna_and_shrubland {'\'All\''}
@attribute value_of_montane_grassland_and_shrubland {'\'All\''}
@attribute value_of_mediterranean_forest_woodland_and_scrub {'\'All\''}

@data
'\'B3of3\'','\'B6of10\'','\'B2of10\'','\'B1of10\'','\'B10of10\'','\'All\'','\'B2of4\'','\'B1of10\'','\'B4of4\'','\'B2of4\'','\'B2of4\'','\'B1of10\'','\'B2of2\'','\'All\'','\'All\'','\'All\'','\'All\'','\'All\'','\'All\'','\'All\'','\'All\'','\'All\''
'\'B3of3\'','\'B4of10\'','\'B10of10\'','\'B9of10\'','\'B2of10\'','\'All\'','\'B3of4\'','\'B4of10\'','\'B2of4\'','\'B1of4\'','\'B4of4\'','\'B8of10\'','\'B2of2\'','\'All\'','\'All\'','\'All\'','\'All\'','\'All\'','\'All\'','\'All\'','\'All\'','\'All\''
'\'B3of3\'','\'B6of10\'','\'B10of10\'','\'B10of10\'','\'B1of10\'','\'All\'','\'B4of4\'','\'B3of10\'','\'B1of4\'','\'B1of4\'','\'B4of4\'','\'B10of10\'','\'B1of2\'','\'All\'','\'All\'','\'All\'','\'All\'','\'All\'','\'All\'','\'All\'','\'All\'','\'All\''
'\'B1of3\'','\'B4of10\'','\'B4of10\'','\'B3of10\'','\'B2of10\'','\'All\'','\'B3of4\'','\'B2of10\'','\'B3of4\'','\'B3of4\'','\'B2of4\'','\'B1of10\'','\'B1of2\'','\'All\'','\'All\'','\'All\'','\'All\'','\'All\'','\'All\'','\'All\'','\'All\'','\'All\''
'\'B2of3\'','\'B1of10\'','\'B10of10\'','\'B9of10\'','\'B1of10\'','\'All\'','\'B4of4\'','\'B5of10\'','\'B4of4\'','\'B4of4\'','\'B2of4\'','\'B6of10\'','\'B2of2\'','\'All\'','\'All\'','\'All\'','\'All\'','\'All\'','\'All\'','\'All\'','\'All\'','\'All\''
'\'B2of3\'','\'B6of10\'','\'B4of10\'','\'B5of10\'','\'B10of10\'','\'All\'','\'B2of4\'','\'B1of10\'','\'B1of4\'','\'B1of4\'','\'B1of4\'','\'B10of10\'','\'B2of2\'','\'All\'','\'All\'','\'All\'','\'All\'','\'All\'','\'All\'','\'All\'','\'All\'','\'All\''
'\'B2of3\'','\'B10of10\'','\'B7of10\'','\'B7of10\'','\'B3of10\'','\'All\'','\'B1of4\'','\'B10of10\'','\'B3of4\'','\'B2of4\'','\'B3of4\'','\'B5of10\'','\'B1of2\'','\'All\'','\'All\'','\'All\'','\'All\'','\'All\'','\'All\'','\'All\'','\'All\'','\'All\''
'\'B1of3\'','\'B10of10\'','\'B8of10\'','\'B8of10\'','\'B3of10\'','\'All\'','\'B1of4\'','\'B10of10\'','\'B3of4\'','\'B3of4\'','\'B4of4\'','\'B10of10\'','\'B2of2\'','\'All\'','\'All\'','\'All\'','\'All\'','\'All\'','\'All\'','\'All\'','\'All\'','\'All\''
'\'B3of3\'','\'B6of10\'','\'B1of10\'','\'B1of10\'','\'B3of10\'','\'All\'','\'B2of4\'','\'B1of10\'','\'B2of4\'','\'B4of4\'','\'B1of4\'','\'B1of10\'','\'B2of2\'','\'All\'','\'All\'','\'All\'','\'All\'','\'All\'','\'All\'','\'All\'','\'All\'','\'All\''
'\'B1of3\'','\'B10of10\'','\'B1of10\'','\'B1of10\'','\'B10of10\'','\'All\'','\'B1of4\'','\'B1of10\'','\'B4of4\'','\'B4of4\'','\'B1of4\'','\'B5of10\'','\'B2of2\'','\'All\'','\'All\'','\'All\'','\'All\'','\'All\'','\'All\'','\'All\'','\'All\'','\'All\''
'\'B2of3\'','\'B4of10\'','\'B4of10\'','\'B4of10\'','\'B9of10\'','\'All\'','\'B3of4\'','\'B1of10\'','\'B1of4\'','\'B2of4\'','\'B3of4\'','\'B1of10\'','\'B2of2\'','\'All\'','\'All\'','\'All\'','\'All\'','\'All\'','\'All\'','\'All\'','\'All\'','\'All\''
'\'B1of3\'','\'B2of10\'','\'B7of10\'','\'B6of10\'','\'B1of10\'','\'All\'','\'B4of4\'','\'B2of10\'','\'B2of4\'','\'B3of4\'','\'B3of4\'','\'B7of10\'','\'B2of2\'','\'All\'','\'All\'','\'All\'','\'All\'','\'All\'','\'All\'','\'All\'','\'All\'','\'All\''
