@relation pollinator_visit_occurrence_of_site_instances

@attribute pollinator_visit_occurrence_of_site numeric
@attribute mean_atmospheric_temperature numeric
@attribute mean_temperature_diurnal_range numeric
@attribute maximum_temperature_warmest_month numeric
@attribute mean_temperature_wettest_quarter numeric
@attribute precipitation_volume_driest_month numeric
@attribute elevation numeric
@attribute drought_severity_index numeric
@attribute bare_area_percentage numeric
@attribute artificial_surface_percentage numeric
@attribute shrubland_percentage numeric
@attribute soil_density numeric
@attribute soil_organic_carbon_content numeric
@attribute value_of_tropical_and_subtropical_moist_broadleaf_forest numeric
@attribute value_of_tropical_and_subtropical_dry_broadleaf_forest numeric
@attribute value_of_temperate_broadleaf_and_mixed_forest numeric
@attribute value_of_temperate_conifer_forest numeric
@attribute value_of_boreal_forest numeric
@attribute value_of_tropical_and_subtropical_grassland_savanna_and_shrubland numeric
@attribute value_of_temperate_grassland_savanna_and_shrubland numeric
@attribute value_of_montane_grassland_and_shrubland numeric
@attribute value_of_mediterranean_forest_woodland_and_scrub numeric

@data
-2.70805,17.7,8.1,29.6,15,0.1,47,-4.24,7.044229,6.260799,14.341098,1500,10,0,0,0,0,0,0,0,0,1
-2.772589,17.6,9.1,30.9,11.9,0.1,93,-4.195,6.469,2.004147,21.539118,1580,10,0,0,0,0,0,0,0,0,1
-2.647426,17.7,9.2,31.1,11.8,0.1,95,-4.2025,6.295794,2.078099,20.586474,1610,5,0,0,0,0,0,0,0,0,1
-4.094345,17.6,8.4,29.9,12,0.1,79,-4.229167,6.479065,11.468003,17.517764,1510,5,0,0,0,0,0,0,0,0,1
-3.178054,17.4,9.1,30.8,11.5,0.1,128,-4.168333,7.93001,15.495585,16.81183,1560,10,0,0,0,0,0,0,0,0,1
-3.871201,17.7,8.4,30.2,15,0.1,39,-4.2375,4.495357,4.795496,12.124992,1610,10,0,0,0,0,0,0,0,0,1
-3.534729,17.9,8.8,30.6,12.3,0.1,31,-4.079167,6.845562,5.301712,19.078065,1550,5,0,0,0,0,0,0,0,0,1
-4.382027,17.9,8.9,30.7,12.3,0.1,26,-4.071667,6.49884,15.013893,19.545696,1600,10,0,0,0,0,0,0,0,0,1
-3.082744,17.7,8,29.5,12.4,0.1,39,-4.234167,6.443381,18.065963,10.608238,1500,10,0,0,0,0,0,0,0,0,1
-4.382027,17.9,7.9,29.5,15.3,0.1,3,-4.238333,7.204262,21.760028,11.389694,1550,10,0,0,0,0,0,0,0,0,1
-3.688879,17.6,8.4,30.1,14.9,0.1,71,-4.25,6.281681,7.130665,18.648716,1510,10,0,0,0,0,0,0,0,0,1
-4.787492,17.5,8.8,30.4,11.8,0.1,111,-4.2225,6.434122,8.084353,19.26741,1570,10,0,0,0,0,0,0,0,0,1
